%YAML 1.1
%TAG !u! tag:unity3d.com,2011:
--- !u!21 &2100000
Material:
  serializedVersion: 6
  m_ObjectHideFlags: 0
  m_CorrespondingSourceObject: {fileID: 0}
  m_PrefabInstance: {fileID: 0}
  m_PrefabAsset: {fileID: 0}
  m_Name: UITransparent_SpaceShipModel
  m_Shader: {fileID: 4800000, guid: f149942accfa0534fa6f239dd09f4152, type: 3}
  m_ShaderKeywords: UNITY_UI_ALPHACLIP _ALPHABLEND_ON _GLOSSYREFLECTIONS_OFF _SPECULARHIGHLIGHTS_OFF
  m_LightmapFlags: 4
  m_EnableInstancingVariants: 0
  m_DoubleSidedGI: 0
  m_CustomRenderQueue: -1
  stringTagMap: {}
  disabledShaderPasses: []
  m_SavedProperties:
    serializedVersion: 3
    m_TexEnvs:
    - _AlphaTexture:
        m_Texture: {fileID: 0}
        m_Scale: {x: 1, y: 1}
        m_Offset: {x: 0, y: 0}
    - _BumpMap:
        m_Texture: {fileID: 0}
        m_Scale: {x: 1, y: 1}
        m_Offset: {x: 0, y: 0}
    - _Cube:
        m_Texture: {fileID: 0}
        m_Scale: {x: 1, y: 1}
        m_Offset: {x: 0, y: 0}
    - _DetailAlbedoMap:
        m_Texture: {fileID: 0}
        m_Scale: {x: 1, y: 1}
        m_Offset: {x: 0, y: 0}
    - _DetailMask:
        m_Texture: {fileID: 0}
        m_Scale: {x: 1, y: 1}
        m_Offset: {x: 0, y: 0}
    - _DetailNormalMap:
        m_Texture: {fileID: 0}
        m_Scale: {x: 1, y: 1}
        m_Offset: {x: 0, y: 0}
    - _EmissionMap:
        m_Texture: {fileID: 0}
        m_Scale: {x: 1, y: 1}
        m_Offset: {x: 0, y: 0}
    - _FaceTex:
        m_Texture: {fileID: 0}
        m_Scale: {x: 1, y: 1}
        m_Offset: {x: 0, y: 0}
    - _MainTex:
        m_Texture: {fileID: 2800000, guid: e6d2ff0ce3d80564db1183e42e68b859, type: 3}
        m_Scale: {x: 1, y: 1}
        m_Offset: {x: 0, y: 0}
    - _MetallicGlossMap:
        m_Texture: {fileID: 0}
        m_Scale: {x: 1, y: 1}
        m_Offset: {x: 0, y: 0}
    - _OcclusionMap:
        m_Texture: {fileID: 0}
        m_Scale: {x: 1, y: 1}
        m_Offset: {x: 0, y: 0}
    - _OutlineTex:
        m_Texture: {fileID: 0}
        m_Scale: {x: 1, y: 1}
        m_Offset: {x: 0, y: 0}
    - _ParallaxMap:
        m_Texture: {fileID: 0}
        m_Scale: {x: 1, y: 1}
        m_Offset: {x: 0, y: 0}
    - _SpecGlossMap:
        m_Texture: {fileID: 0}
        m_Scale: {x: 1, y: 1}
        m_Offset: {x: 0, y: 0}
    m_Floats:
    - _Ambient: 0.5
    - _Bevel: 0.5
    - _BevelClamp: 0
    - _BevelOffset: 0
    - _BevelRoundness: 0
    - _BevelWidth: 0
    - _BumpFace: 0
    - _BumpOutline: 0
    - _BumpScale: 1
    - _ColorMask: 15
    - _Cutoff: 0.47
    - _Darken: 1
    - _DetailNormalMapScale: 1
    - _Diffuse: 0.5
    - _DstBlend: 10
    - _FaceDilate: 1
    - _FaceUVSpeedX: 0
    - _FaceUVSpeedY: 0
    - _GlitchIntensity: 0
    - _GlitchSpeed: 0
    - _GlossMapScale: 1
    - _Glossiness: 0.577
    - _GlossyReflections: 0
    - _GlowInner: 0.05
    - _GlowIntensity: 0.0376795
    - _GlowOffset: 0
    - _GlowOuter: 0.05
    - _GlowPower: 0.75
    - _GradientScale: 5
    - _LightAngle: 3.1416
    - _MaskSoftnessX: 0
    - _MaskSoftnessY: 0
    - _Metallic: 0
    - _Mode: 2
    - _OcclusionStrength: 1
    - _OutlineSoftness: 1
    - _OutlineUVSpeedX: 0
    - _OutlineUVSpeedY: 0
    - _OutlineWidth: 0
    - _Parallax: 0.02
    - _PerspectiveFilter: 0.875
    - _Reflectivity: 10
    - _Scale: 3
    - _ScaleRatioA: 1
    - _ScaleRatioB: 1
    - _ScaleRatioC: 1
    - _ScaleX: 1
    - _ScaleY: 1
    - _ScrollSpeedV: 0.67
    - _SeeThru: 0
    - _ShaderFlags: 0
    - _Shininess: 0.078125
    - _SmoothnessTextureChannel: 0
    - _SpecularHighlights: 0
    - _SpecularPower: 2
    - _SrcBlend: 5
    - _Stencil: 0
    - _StencilComp: 8
    - _StencilOp: 0
    - _StencilReadMask: 255
    - _StencilWriteMask: 255
    - _TextureHeight: 512
    - _TextureWidth: 512
    - _UVSec: 0
    - _UnderlayDilate: 0
    - _UnderlayOffsetX: 0
    - _UnderlayOffsetY: 0
    - _UnderlaySoftness: 0
    - _UseUIAlphaClip: 1
    - _VertexOffsetX: 0
    - _VertexOffsetY: 0
    - _WeightBold: 0.5
    - _WeightNormal: 0
    - _ZWrite: 0
    m_Colors:
    - _ClipRect: {r: -32767, g: -32767, b: 32767, a: 32767}
    - _Color: {r: 1, g: 0.039559316, b: 0, a: 0.5529412}
    - _EmissionColor: {r: 0, g: 0, b: 0, a: 1}
    - _EnvMatrixRotation: {r: 0, g: 0, b: 0, a: 0}
    - _FaceColor: {r: 0.012415428, g: 0.31578138, b: 0.8773585, a: 1}
    - _GlowColor: {r: 0, g: 1, b: 0, a: 0.5}
    - _MaskCoord: {r: 0, g: 0, b: 32767, a: 32767}
    - _OutlineColor: {r: 1, g: 1, b: 1, a: 0}
    - _ReflectColor: {r: 1, g: 1, b: 1, a: 0.5}
    - _ReflectFaceColor: {r: 0, g: 0, b: 0, a: 1}
    - _ReflectOutlineColor: {r: 0, g: 0, b: 0, a: 1}
    - _SpecColor: {r: 0.5, g: 0.5, b: 0.5, a: 0}
    - _Specular: {r: 0.11053756, g: 0.25367874, b: 0.8679245, a: 0}
    - _SpecularColor: {r: 1, g: 1, b: 1, a: 1}
    - _TintColor: {r: 0.011747954, g: 0.09533514, b: 0.2264151, a: 1}
    - _UnderlayColor: {r: 0, g: 0, b: 0, a: 0.5}
